Prac1/alu.vcd
$date
	Thu Nov 12 15:05:07 2020
$end
$version
	Icarus Verilog
$end
$timescale
	10ps
$end
$scope module alu_tb $end
$var wire 1 ! t_z $end
$var wire 1 " t_s $end
$var wire 1 # t_c $end
$var wire 4 $ t_R [3:0] $end
$var reg 4 % t_A [3:0] $end
$var reg 4 & t_B [3:0] $end
$var reg 1 ' t_L $end
$var reg 2 ( t_Op [1:0] $end
$var integer 32 ) errores [31:0] $end
$scope module mat $end
$var wire 4 * a [3:0] $end
$var wire 2 + aluop [1:0] $end
$var wire 4 , b [3:0] $end
$var wire 1 - cin0 $end
$var wire 1 . cp1 $end
$var wire 1 ' l $end
$var wire 1 / op1_a $end
$var wire 1 0 op2_b $end
$var wire 1 ! zero $end
$var wire 1 " sign $end
$var wire 4 1 sal_muxb [3:0] $end
$var wire 4 2 r [3:0] $end
$var wire 4 3 op2 [3:0] $end
$var wire 4 4 op1 [3:0] $end
$var wire 1 5 cin3 $end
$var wire 1 6 cin2 $end
$var wire 1 7 cin1 $end
$var wire 1 # carry $end
$scope module celal0 $end
$var wire 1 8 a $end
$var wire 1 9 b $end
$var wire 1 - c_in $end
$var wire 1 ' l $end
$var wire 2 : s [1:0] $end
$var wire 1 ; sal_fa $end
$var wire 1 < sal_cl $end
$var wire 1 = out $end
$var wire 1 7 c_out $end
$scope module celdalog $end
$var wire 1 8 a $end
$var wire 1 9 b $end
$var wire 2 > s [1:0] $end
$var wire 1 ? sal_and $end
$var wire 1 @ sal_not $end
$var wire 1 A sal_or $end
$var wire 1 B sal_xor $end
$var wire 1 < out $end
$scope module multiplexor $end
$var wire 1 ? a $end
$var wire 1 A b $end
$var wire 1 B c $end
$var wire 1 @ d $end
$var wire 2 C s [1:0] $end
$var reg 1 < out $end
$upscope $end
$upscope $end
$scope module fulladder $end
$var wire 1 8 a $end
$var wire 1 9 b $end
$var wire 1 - cin $end
$var wire 1 ; sum $end
$var wire 1 7 cout $end
$upscope $end
$scope module multiplexor2a1 $end
$var wire 1 ; a $end
$var wire 1 < b $end
$var wire 1 ' s $end
$var wire 1 = out $end
$upscope $end
$upscope $end
$scope module celal1 $end
$var wire 1 D a $end
$var wire 1 E b $end
$var wire 1 7 c_in $end
$var wire 1 ' l $end
$var wire 2 F s [1:0] $end
$var wire 1 G sal_fa $end
$var wire 1 H sal_cl $end
$var wire 1 I out $end
$var wire 1 6 c_out $end
$scope module celdalog $end
$var wire 1 D a $end
$var wire 1 E b $end
$var wire 2 J s [1:0] $end
$var wire 1 K sal_and $end
$var wire 1 L sal_not $end
$var wire 1 M sal_or $end
$var wire 1 N sal_xor $end
$var wire 1 H out $end
$scope module multiplexor $end
$var wire 1 K a $end
$var wire 1 M b $end
$var wire 1 N c $end
$var wire 1 L d $end
$var wire 2 O s [1:0] $end
$var reg 1 H out $end
$upscope $end
$upscope $end
$scope module fulladder $end
$var wire 1 D a $end
$var wire 1 E b $end
$var wire 1 7 cin $end
$var wire 1 G sum $end
$var wire 1 6 cout $end
$upscope $end
$scope module multiplexor2a1 $end
$var wire 1 G a $end
$var wire 1 H b $end
$var wire 1 ' s $end
$var wire 1 I out $end
$upscope $end
$upscope $end
$scope module celal2 $end
$var wire 1 P a $end
$var wire 1 Q b $end
$var wire 1 6 c_in $end
$var wire 1 ' l $end
$var wire 2 R s [1:0] $end
$var wire 1 S sal_fa $end
$var wire 1 T sal_cl $end
$var wire 1 U out $end
$var wire 1 5 c_out $end
$scope module celdalog $end
$var wire 1 P a $end
$var wire 1 Q b $end
$var wire 2 V s [1:0] $end
$var wire 1 W sal_and $end
$var wire 1 X sal_not $end
$var wire 1 Y sal_or $end
$var wire 1 Z sal_xor $end
$var wire 1 T out $end
$scope module multiplexor $end
$var wire 1 W a $end
$var wire 1 Y b $end
$var wire 1 Z c $end
$var wire 1 X d $end
$var wire 2 [ s [1:0] $end
$var reg 1 T out $end
$upscope $end
$upscope $end
$scope module fulladder $end
$var wire 1 P a $end
$var wire 1 Q b $end
$var wire 1 6 cin $end
$var wire 1 S sum $end
$var wire 1 5 cout $end
$upscope $end
$scope module multiplexor2a1 $end
$var wire 1 S a $end
$var wire 1 T b $end
$var wire 1 ' s $end
$var wire 1 U out $end
$upscope $end
$upscope $end
$scope module celal3 $end
$var wire 1 \ a $end
$var wire 1 ] b $end
$var wire 1 5 c_in $end
$var wire 1 ' l $end
$var wire 2 ^ s [1:0] $end
$var wire 1 _ sal_fa $end
$var wire 1 ` sal_cl $end
$var wire 1 a out $end
$var wire 1 # c_out $end
$scope module celdalog $end
$var wire 1 \ a $end
$var wire 1 ] b $end
$var wire 2 b s [1:0] $end
$var wire 1 c sal_and $end
$var wire 1 d sal_not $end
$var wire 1 e sal_or $end
$var wire 1 f sal_xor $end
$var wire 1 ` out $end
$scope module multiplexor $end
$var wire 1 c a $end
$var wire 1 e b $end
$var wire 1 f c $end
$var wire 1 d d $end
$var wire 2 g s [1:0] $end
$var reg 1 ` out $end
$upscope $end
$upscope $end
$scope module fulladder $end
$var wire 1 \ a $end
$var wire 1 ] b $end
$var wire 1 5 cin $end
$var wire 1 _ sum $end
$var wire 1 # cout $end
$upscope $end
$scope module multiplexor2a1 $end
$var wire 1 _ a $end
$var wire 1 ` b $end
$var wire 1 ' s $end
$var wire 1 a out $end
$upscope $end
$upscope $end
$scope module complemento $end
$var wire 1 . cpl $end
$var wire 4 h sal [3:0] $end
$var wire 4 i ent [3:0] $end
$upscope $end
$scope module multipl_a $end
$var wire 4 j a [3:0] $end
$var wire 4 k b [3:0] $end
$var wire 1 / s $end
$var wire 4 l out [3:0] $end
$upscope $end
$scope module multipl_b $end
$var wire 4 m a [3:0] $end
$var wire 4 n b [3:0] $end
$var wire 4 o out [3:0] $end
$var wire 1 0 s $end
$upscope $end
$upscope $end
$scope task check $end
$var reg 1 p flag_carry $end
$var reg 1 q flag_sign $end
$var reg 1 r flag_zero $end
$var reg 5 s result [4:0] $end
$upscope $end
$upscope $end
$enddefinitions $end
#0
$dumpvars
bx s
xr
xq
xp
b0 o
b0 n
b0 m
b0 l
b0 k
b0 j
b0 i
b0 h
b0 g
0f
0e
1d
0c
b0 b
0a
0`
0_
b0 ^
0]
0\
b0 [
0Z
0Y
1X
0W
b0 V
0U
0T
0S
b0 R
0Q
0P
b0 O
0N
0M
1L
0K
b0 J
0I
0H
0G
b0 F
0E
0D
b0 C
0B
0A
1@
0?
b0 >
0=
0<
0;
b0 :
09
08
07
06
05
b0 4
b0 3
b0 2
b0 1
10
1/
0.
0-
b0 ,
b0 +
b0 *
b0 )
b0 (
0'
b0 &
b0 %
b0 $
0#
0"
1!
$end
#200
0!
b1 $
b1 2
1=
1A
1B
1;
19
b1 3
b1 h
b1 1
b1 i
b1 o
b1 &
b1 ,
b1 n
1r
0q
0p
b0 s
#400
1I
0!
b10 $
b10 2
0=
1M
1N
1G
0A
0B
0;
1E
09
b10 3
b10 h
b10 1
b10 i
b10 o
b10 &
b10 ,
b10 n
0r
b1 s
#600
b11 $
b11 2
1=
1A
1B
1;
19
b11 3
b11 h
b11 1
b11 i
b11 o
b11 &
b11 ,
b11 n
b10 s
#800
1U
0!
0I
b100 $
b100 2
0=
1Y
1Z
1S
0M
0N
0G
0A
0B
0;
1Q
0E
09
b100 3
b100 h
b100 1
b100 i
b100 o
b100 &
b100 ,
b100 n
b11 s
#1000
b101 $
b101 2
1=
1A
1B
1;
19
b101 3
b101 h
b101 1
b101 i
b101 o
b101 &
b101 ,
b101 n
b100 s
#1200
1I
b110 $
b110 2
0=
1M
1N
1G
0A
0B
0;
1E
09
b110 3
b110 h
b110 1
b110 i
b110 o
b110 &
b110 ,
b110 n
b101 s
#1400
b111 $
b111 2
1=
1A
1B
1;
19
b111 3
b111 h
b111 1
b111 i
b111 o
b111 &
b111 ,
b111 n
b110 s
#1600
1"
1a
0!
0U
0I
b1000 $
b1000 2
0=
1e
1f
1_
0Y
0Z
0S
0M
0N
0G
0A
0B
0;
1]
0Q
0E
09
b1000 3
b1000 h
b1000 1
b1000 i
b1000 o
b1000 &
b1000 ,
b1000 n
b111 s
#1800
b1001 $
b1001 2
1=
1A
1B
1;
19
b1001 3
b1001 h
b1001 1
b1001 i
b1001 o
b1001 &
b1001 ,
b1001 n
1q
b1000 s
#2000
1I
b1010 $
b1010 2
0=
1M
1N
1G
0A
0B
0;
1E
09
b1010 3
b1010 h
b1010 1
b1010 i
b1010 o
b1010 &
b1010 ,
b1010 n
b1001 s
#2200
b1011 $
b1011 2
1=
1A
1B
1;
19
b1011 3
b1011 h
b1011 1
b1011 i
b1011 o
b1011 &
b1011 ,
b1011 n
b1010 s
#2400
1U
0I
b1100 $
b1100 2
0=
1Y
1Z
1S
0M
0N
0G
0A
0B
0;
1Q
0E
09
b1100 3
b1100 h
b1100 1
b1100 i
b1100 o
b1100 &
b1100 ,
b1100 n
b1011 s
#2600
b1101 $
b1101 2
1=
1A
1B
1;
19
b1101 3
b1101 h
b1101 1
b1101 i
b1101 o
b1101 &
b1101 ,
b1101 n
b1100 s
#2800
1I
b1110 $
b1110 2
0=
1M
1N
1G
0A
0B
0;
1E
09
b1110 3
b1110 h
b1110 1
b1110 i
b1110 o
b1110 &
b1110 ,
b1110 n
b1101 s
#3000
b1111 $
b1111 2
1=
1A
1B
1;
19
b1111 3
b1111 h
b1111 1
b1111 i
b1111 o
b1111 &
b1111 ,
b1111 n
b1110 s
#3200
0"
0a
0U
b1 $
b1 2
0I
0@
0e
0f
0_
0Y
0Z
0S
0M
0N
0G
18
0]
0Q
0E
09
b1 4
b1 l
b0 3
b0 h
b1 %
b1 *
b1 k
b1 m
b0 1
b0 i
b0 o
b0 &
b0 ,
b0 n
b1111 s
#3400
1I
1<
0!
b10 $
b10 2
0=
1G
1?
0B
0;
17
19
b1 3
b1 h
b1 1
b1 i
b1 o
b1 &
b1 ,
b1 n
0q
b1 s
#3600
0<
b11 $
b11 2
1=
1M
1N
0?
1B
1;
07
1E
09
b10 3
b10 h
b10 1
b10 i
b10 o
b10 &
b10 ,
b10 n
b10 s
#3800
1U
0!
0I
1S
1<
b100 $
b100 2
0=
0G
16
1?
0B
0;
17
19
b11 3
b11 h
b11 1
b11 i
b11 o
b11 &
b11 ,
b11 n
b11 s
#4000
0<
b101 $
b101 2
1=
1Y
1Z
0M
0N
06
0?
1B
1;
07
1Q
0E
09
b100 3
b100 h
b100 1
b100 i
b100 o
b100 &
b100 ,
b100 n
b100 s
#4200
1I
1<
b110 $
b110 2
0=
1G
1?
0B
0;
17
19
b101 3
b101 h
b101 1
b101 i
b101 o
b101 &
b101 ,
b101 n
b101 s
#4400
0<
b111 $
b111 2
1=
1M
1N
0?
1B
1;
07
1E
09
b110 3
b110 h
b110 1
b110 i
b110 o
b110 &
b110 ,
b110 n
b110 s
#4600
1"
1a
0!
0U
1_
0I
0S
15
1<
b1000 $
b1000 2
0=
0G
16
1?
0B
0;
17
19
b111 3
b111 h
b111 1
b111 i
b111 o
b111 &
b111 ,
b111 n
b111 s
#4800
0<
b1001 $
b1001 2
1=
1e
1f
0Y
0Z
05
0M
0N
06
0?
1B
1;
07
1]
0Q
0E
09
b1000 3
b1000 h
b1000 1
b1000 i
b1000 o
b1000 &
b1000 ,
b1000 n
1q
b1000 s
#5000
1I
1<
b1010 $
b1010 2
0=
1G
1?
0B
0;
17
19
b1001 3
b1001 h
b1001 1
b1001 i
b1001 o
b1001 &
b1001 ,
b1001 n
b1001 s
#5200
0<
b1011 $
b1011 2
1=
1M
1N
0?
1B
1;
07
1E
09
b1010 3
b1010 h
b1010 1
b1010 i
b1010 o
b1010 &
b1010 ,
b1010 n
b1010 s
#5400
1U
0I
1S
1<
b1100 $
b1100 2
0=
0G
16
1?
0B
0;
17
19
b1011 3
b1011 h
b1011 1
b1011 i
b1011 o
b1011 &
b1011 ,
b1011 n
b1011 s
#5600
0<
b1101 $
b1101 2
1=
1Y
1Z
0M
0N
06
0?
1B
1;
07
1Q
0E
09
b1100 3
b1100 h
b1100 1
b1100 i
b1100 o
b1100 &
b1100 ,
b1100 n
b1100 s
#5800
1I
1<
b1110 $
b1110 2
0=
1G
1?
0B
0;
17
19
b1101 3
b1101 h
b1101 1
b1101 i
b1101 o
b1101 &
b1101 ,
b1101 n
b1101 s
#6000
0<
b1111 $
b1111 2
1=
1M
1N
0?
1B
1;
07
1E
09
b1110 3
b1110 h
b1110 1
b1110 i
b1110 o
b1110 &
b1110 ,
b1110 n
b1110 s
#6200
0"
1!
0a
0U
0_
1#
0I
0S
15
1<
b0 $
b0 2
0=
0G
16
1?
0B
0;
17
19
b1111 3
b1111 h
b1111 1
b1111 i
b1111 o
b1111 &
b1111 ,
b1111 n
b1111 s
#6400
0!
b10 $
b10 2
1I
0<
0L
1@
0e
0f
0#
0Y
0Z
05
1G
06
0?
0A
07
1D
08
0]
0Q
0E
09
b10 4
b10 l
b0 3
b0 h
b10 %
b10 *
b10 k
b10 m
b0 1
b0 i
b0 o
b0 &
b0 ,
b0 n
1r
0q
1p
b10000 s
#6600
b11 $
b11 2
1=
1A
1B
1;
19
b1 3
b1 h
b1 1
b1 i
b1 o
b1 &
b1 ,
b1 n
0r
0p
b10 s
#6800
1U
1H
0!
0I
1S
b100 $
b100 2
0=
1K
0N
0G
16
0A
0B
0;
1E
09
b10 3
b10 h
b10 1
b10 i
b10 o
b10 &
b10 ,
b10 n
b11 s
#7000
b101 $
b101 2
1=
1A
1B
1;
19
b11 3
b11 h
b11 1
b11 i
b11 o
b11 &
b11 ,
b11 n
b100 s
#7200
0H
1I
b110 $
b110 2
0=
1Y
1Z
0K
1N
1G
06
0A
0B
0;
1Q
0E
09
b100 3
b100 h
b100 1
b100 i
b100 o
b100 &
b100 ,
b100 n
b101 s
#7400
b111 $
b111 2
1=
1A
1B
1;
19
b101 3
b101 h
b101 1
b101 i
b101 o
b101 &
b101 ,
b101 n
b110 s
#7600
1"
1a
0!
0U
1_
1H
0I
0S
15
b1000 $
b1000 2
0=
1K
0N
0G
16
0A
0B
0;
1E
09
b110 3
b110 h
b110 1
b110 i
b110 o
b110 &
b110 ,
b110 n
b111 s
#7800
b1001 $
b1001 2
1=
1A
1B
1;
19
b111 3
b111 h
b111 1
b111 i
b111 o
b111 &
b111 ,
b111 n
1q
b1000 s
#8000
0H
1I
b1010 $
b1010 2
0=
1e
1f
0Y
0Z
05
0K
1N
1G
06
0A
0B
0;
1]
0Q
0E
09
b1000 3
b1000 h
b1000 1
b1000 i
b1000 o
b1000 &
b1000 ,
b1000 n
b1001 s
#8200
b1011 $
b1011 2
1=
1A
1B
1;
19
b1001 3
b1001 h
b1001 1
b1001 i
b1001 o
b1001 &
b1001 ,
b1001 n
b1010 s
#8400
1U
1H
0I
1S
b1100 $
b1100 2
0=
1K
0N
0G
16
0A
0B
0;
1E
09
b1010 3
b1010 h
b1010 1
b1010 i
b1010 o
b1010 &
b1010 ,
b1010 n
b1011 s
#8600
b1101 $
b1101 2
1=
1A
1B
1;
19
b1011 3
b1011 h
b1011 1
b1011 i
b1011 o
b1011 &
b1011 ,
b1011 n
b1100 s
#8800
0H
1I
b1110 $
b1110 2
0=
1Y
1Z
0K
1N
1G
06
0A
0B
0;
1Q
0E
09
b1100 3
b1100 h
b1100 1
b1100 i
b1100 o
b1100 &
b1100 ,
b1100 n
b1101 s
#9000
b1111 $
b1111 2
1=
1A
1B
1;
19
b1101 3
b1101 h
b1101 1
b1101 i
b1101 o
b1101 &
b1101 ,
b1101 n
b1110 s
#9200
0"
1!
0a
0U
0_
1#
1H
0I
0S
15
b0 $
b0 2
0=
1K
0N
0G
16
0A
0B
0;
1E
09
b1110 3
b1110 h
b1110 1
b1110 i
b1110 o
b1110 &
b1110 ,
b1110 n
b1111 s
#9400
0!
b1 $
b1 2
1=
1A
1B
1;
19
b1111 3
b1111 h
b1111 1
b1111 i
b1111 o
b1111 &
b1111 ,
b1111 n
1r
0q
1p
b10000 s
#9600
0H
b11 $
b11 2
1I
0@
0e
0f
0#
0Y
0Z
05
0K
1N
1G
06
18
0]
0Q
0E
09
b11 4
b11 l
b0 3
b0 h
b11 %
b11 *
b11 k
b11 m
b0 1
b0 i
b0 o
b0 &
b0 ,
b0 n
0r
b10001 s
#9800
1U
0!
0I
1S
1<
b100 $
b100 2
0=
0G
16
1?
0B
0;
17
19
b1 3
b1 h
b1 1
b1 i
b1 o
b1 &
b1 ,
b1 n
0p
b11 s
#10000
1H
0<
b101 $
b101 2
1=
1K
0N
0?
1B
1;
07
1E
09
b10 3
b10 h
b10 1
b10 i
b10 o
b10 &
b10 ,
b10 n
b100 s
#10200
1I
1<
b110 $
b110 2
0=
1G
1?
0B
0;
17
19
b11 3
b11 h
b11 1
b11 i
b11 o
b11 &
b11 ,
b11 n
b101 s
#10400
0"
0a
1U
0_
0H
0<
b111 $
b111 2
1=
06
1Y
1Z
1S
05
0K
1N
0?
1B
1;
07
1Q
0E
09
b100 3
b100 h
b100 1
b100 i
b100 o
b100 &
b100 ,
b100 n
b110 s
#10600
1"
1a
0!
0U
1_
0I
0S
15
1<
b1000 $
b1000 2
0=
0G
16
1?
0B
0;
17
19
b101 3
b101 h
b101 1
b101 i
b101 o
b101 &
b101 ,
b101 n
b111 s
#10800
1H
0<
b1001 $
b1001 2
1=
1K
0N
0?
1B
1;
07
1E
09
b110 3
b110 h
b110 1
b110 i
b110 o
b110 &
b110 ,
b110 n
1q
b1000 s
#11000
1I
1<
b1010 $
b1010 2
0=
1G
1?
0B
0;
17
19
b111 3
b111 h
b111 1
b111 i
b111 o
b111 &
b111 ,
b111 n
b1001 s
#11200
0U
0H
0<
b1011 $
b1011 2
1=
06
1e
1f
0Y
0Z
0S
05
0K
1N
0?
1B
1;
07
1]
0Q
0E
09
b1000 3
b1000 h
b1000 1
b1000 i
b1000 o
b1000 &
b1000 ,
b1000 n
b1010 s
#11400
1U
0I
1S
1<
b1100 $
b1100 2
0=
0G
16
1?
0B
0;
17
19
b1001 3
b1001 h
b1001 1
b1001 i
b1001 o
b1001 &
b1001 ,
b1001 n
b1011 s
#11600
1H
0<
b1101 $
b1101 2
1=
1K
0N
0?
1B
1;
07
1E
09
b1010 3
b1010 h
b1010 1
b1010 i
b1010 o
b1010 &
b1010 ,
b1010 n
b1100 s
#11800
1I
1<
b1110 $
b1110 2
0=
1G
1?
0B
0;
17
19
b1011 3
b1011 h
b1011 1
b1011 i
b1011 o
b1011 &
b1011 ,
b1011 n
b1101 s
#12000
1"
1a
1U
1_
0#
0H
0<
b1111 $
b1111 2
1=
06
1Y
1Z
1S
05
0K
1N
0?
1B
1;
07
1Q
0E
09
b1100 3
b1100 h
b1100 1
b1100 i
b1100 o
b1100 &
b1100 ,
b1100 n
b1110 s
#12200
0"
1!
0a
0U
0_
1#
0I
0S
15
1<
b0 $
b0 2
0=
0G
16
1?
0B
0;
17
19
b1101 3
b1101 h
b1101 1
b1101 i
b1101 o
b1101 &
b1101 ,
b1101 n
b1111 s
#12400
1H
0<
0!
b1 $
b1 2
1=
1K
0N
0?
1B
1;
07
1E
09
b1110 3
b1110 h
b1110 1
b1110 i
b1110 o
b1110 &
b1110 ,
b1110 n
1r
0q
1p
b10000 s
#12600
1I
1<
0!
b10 $
b10 2
0=
1G
1?
0B
0;
17
19
b1111 3
b1111 h
b1111 1
b1111 i
b1111 o
b1111 &
b1111 ,
b1111 n
0r
b10001 s
#12800
1U
0"
1S
05
0a
0H
0!
b100 $
b100 2
0I
0<
0X
1L
06
1@
0e
0f
0_
0#
0K
0M
0G
0?
0A
07
1P
0D
08
0]
0Q
0E
09
b100 4
b100 l
b0 3
b0 h
b100 %
b100 *
b100 k
b100 m
b0 1
b0 i
b0 o
b0 &
b0 ,
b0 n
b10010 s
#13000
b101 $
b101 2
1=
1A
1B
1;
19
b1 3
b1 h
b1 1
b1 i
b1 o
b1 &
b1 ,
b1 n
0p
b100 s
#13200
1I
b110 $
b110 2
0=
1M
1N
1G
0A
0B
0;
1E
09
b10 3
b10 h
b10 1
b10 i
b10 o
b10 &
b10 ,
b10 n
b101 s
#13400
b111 $
b111 2
1=
1A
1B
1;
19
b11 3
b11 h
b11 1
b11 i
b11 o
b11 &
b11 ,
b11 n
b110 s
#13600
1"
1a
1T
0!
0U
1_
0I
b1000 $
b1000 2
0=
1W
0Z
0S
15
0M
0N
0G
0A
0B
0;
1Q
0E
09
b100 3
b100 h
b100 1
b100 i
b100 o
b100 &
b100 ,
b100 n
b111 s
#13800
b1001 $
b1001 2
1=
1A
1B
1;
19
b101 3
b101 h
b101 1
b101 i
b101 o
b101 &
b101 ,
b101 n
1q
b1000 s
#14000
1I
b1010 $
b1010 2
0=
1M
1N
1G
0A
0B
0;
1E
09
b110 3
b110 h
b110 1
b110 i
b110 o
b110 &
b110 ,
b110 n
b1001 s
#14200
b1011 $
b1011 2
1=
1A
1B
1;
19
b111 3
b111 h
b111 1
b111 i
b111 o
b111 &
b111 ,
b111 n
b1010 s
#14400
0T
1U
0I
b1100 $
b1100 2
0=
1e
1f
0W
1Z
1S
05
0M
0N
0G
0A
0B
0;
1]
0Q
0E
09
b1000 3
b1000 h
b1000 1
b1000 i
b1000 o
b1000 &
b1000 ,
b1000 n
b1011 s
#14600
b1101 $
b1101 2
1=
1A
1B
1;
19
b1001 3
b1001 h
b1001 1
b1001 i
b1001 o
b1001 &
b1001 ,
b1001 n
b1100 s
#14800
1I
b1110 $
b1110 2
0=
1M
1N
1G
0A
0B
0;
1E
09
b1010 3
b1010 h
b1010 1
b1010 i
b1010 o
b1010 &
b1010 ,
b1010 n
b1101 s
#15000
b1111 $
b1111 2
1=
1A
1B
1;
19
b1011 3
b1011 h
b1011 1
b1011 i
b1011 o
b1011 &
b1011 ,
b1011 n
b1110 s
#15200
0"
1!
0a
1T
0U
0_
1#
0I
b0 $
b0 2
0=
1W
0Z
0S
15
0M
0N
0G
0A
0B
0;
1Q
0E
09
b1100 3
b1100 h
b1100 1
b1100 i
b1100 o
b1100 &
b1100 ,
b1100 n
b1111 s
#15400
0!
b1 $
b1 2
1=
1A
1B
1;
19
b1101 3
b1101 h
b1101 1
b1101 i
b1101 o
b1101 &
b1101 ,
b1101 n
1r
0q
1p
b10000 s
#15600
1I
0!
b10 $
b10 2
0=
1M
1N
1G
0A
0B
0;
1E
09
b1110 3
b1110 h
b1110 1
b1110 i
b1110 o
b1110 &
b1110 ,
b1110 n
0r
b10001 s
#15800
b11 $
b11 2
1=
1A
1B
1;
19
b1111 3
b1111 h
b1111 1
b1111 i
b1111 o
b1111 &
b1111 ,
b1111 n
b10010 s
#16000
0T
1U
b101 $
b101 2
0I
0@
0e
0f
0#
0W
1Z
1S
05
0M
0N
0G
18
0]
0Q
0E
09
b101 4
b101 l
b0 3
b0 h
b101 %
b101 *
b101 k
b101 m
b0 1
b0 i
b0 o
b0 &
b0 ,
b0 n
b10011 s
#16200
1I
1<
b110 $
b110 2
0=
1G
1?
0B
0;
17
19
b1 3
b1 h
b1 1
b1 i
b1 o
b1 &
b1 ,
b1 n
0p
b101 s
#16400
0<
b111 $
b111 2
1=
1M
1N
0?
1B
1;
07
1E
09
b10 3
b10 h
b10 1
b10 i
b10 o
b10 &
b10 ,
b10 n
b110 s
#16600
1"
1a
0!
0U
1_
0I
0S
15
1<
b1000 $
b1000 2
0=
0G
16
1?
0B
0;
17
19
b11 3
b11 h
b11 1
b11 i
b11 o
b11 &
b11 ,
b11 n
b111 s
#16800
1T
0<
b1001 $
b1001 2
1=
1W
0Z
0M
0N
06
0?
1B
1;
07
1Q
0E
09
b100 3
b100 h
b100 1
b100 i
b100 o
b100 &
b100 ,
b100 n
1q
b1000 s
#17000
1I
1<
b1010 $
b1010 2
0=
1G
1?
0B
0;
17
19
b101 3
b101 h
b101 1
b101 i
b101 o
b101 &
b101 ,
b101 n
b1001 s
#17200
0<
b1011 $
b1011 2
1=
1M
1N
0?
1B
1;
07
1E
09
b110 3
b110 h
b110 1
b110 i
b110 o
b110 &
b110 ,
b110 n
b1010 s
#17400
1U
0I
1S
1<
b1100 $
b1100 2
0=
0G
16
1?
0B
0;
17
19
b111 3
b111 h
b111 1
b111 i
b111 o
b111 &
b111 ,
b111 n
b1011 s
#17600
1"
1a
0T
05
0<
b1101 $
b1101 2
1=
1e
1f
1_
0#
0W
1Z
0M
0N
06
0?
1B
1;
07
1]
0Q
0E
09
b1000 3
b1000 h
b1000 1
b1000 i
b1000 o
b1000 &
b1000 ,
b1000 n
b1100 s
#17800
1I
1<
b1110 $
b1110 2
0=
1G
1?
0B
0;
17
19
b1001 3
b1001 h
b1001 1
b1001 i
b1001 o
b1001 &
b1001 ,
b1001 n
b1101 s
#18000
0<
b1111 $
b1111 2
1=
1M
1N
0?
1B
1;
07
1E
09
b1010 3
b1010 h
b1010 1
b1010 i
b1010 o
b1010 &
b1010 ,
b1010 n
b1110 s
#18200
0"
1!
0a
0U
0_
1#
0I
0S
15
1<
b0 $
b0 2
0=
0G
16
1?
0B
0;
17
19
b1011 3
b1011 h
b1011 1
b1011 i
b1011 o
b1011 &
b1011 ,
b1011 n
b1111 s
#18400
1T
0<
0!
b1 $
b1 2
1=
1W
0Z
0M
0N
06
0?
1B
1;
07
1Q
0E
09
b1100 3
b1100 h
b1100 1
b1100 i
b1100 o
b1100 &
b1100 ,
b1100 n
1r
0q
1p
b10000 s
#18600
1I
1<
0!
b10 $
b10 2
0=
1G
1?
0B
0;
17
19
b1101 3
b1101 h
b1101 1
b1101 i
b1101 o
b1101 &
b1101 ,
b1101 n
0r
b10001 s
#18800
0<
b11 $
b11 2
1=
1M
1N
0?
1B
1;
07
1E
09
b1110 3
b1110 h
b1110 1
b1110 i
b1110 o
b1110 &
b1110 ,
b1110 n
b10010 s
#19000
1U
0!
0I
1S
1<
b100 $
b100 2
0=
0G
16
1?
0B
0;
17
19
b1111 3
b1111 h
b1111 1
b1111 i
b1111 o
b1111 &
b1111 ,
b1111 n
b10011 s
#19200
0"
0a
0T
b110 $
b110 2
1I
05
0<
0L
1@
0e
0f
0_
0#
0W
1Z
1G
06
0?
0A
07
1D
08
0]
0Q
0E
09
b110 4
b110 l
b0 3
b0 h
b110 %
b110 *
b110 k
b110 m
b0 1
b0 i
b0 o
b0 &
b0 ,
b0 n
b10100 s
#19400
b111 $
b111 2
1=
1A
1B
1;
19
b1 3
b1 h
b1 1
b1 i
b1 o
b1 &
b1 ,
b1 n
0p
b110 s
#19600
1"
1a
0!
0U
1_
1H
0I
0S
15
b1000 $
b1000 2
0=
1K
0N
0G
16
0A
0B
0;
1E
09
b10 3
b10 h
b10 1
b10 i
b10 o
b10 &
b10 ,
b10 n
b111 s
#19800
b1001 $
b1001 2
1=
1A
1B
1;
19
b11 3
b11 h
b11 1
b11 i
b11 o
b11 &
b11 ,
b11 n
1q
b1000 s
#20000
1T
0H
1I
b1010 $
b1010 2
0=
1W
0Z
0K
1N
1G
06
0A
0B
0;
1Q
0E
09
b100 3
b100 h
b100 1
b100 i
b100 o
b100 &
b100 ,
b100 n
b1001 s
#20200
b1011 $
b1011 2
1=
1A
1B
1;
19
b101 3
b101 h
b101 1
b101 i
b101 o
b101 &
b101 ,
b101 n
b1010 s
#20400
1U
1H
0I
1S
b1100 $
b1100 2
0=
1K
0N
0G
16
0A
0B
0;
1E
09
b110 3
b110 h
b110 1
b110 i
b110 o
b110 &
b110 ,
b110 n
b1011 s
#20600
b1101 $
b1101 2
1=
1A
1B
1;
19
b111 3
b111 h
b111 1
b111 i
b111 o
b111 &
b111 ,
b111 n
b1100 s
#20800
1"
1a
0T
0H
1I
05
b1110 $
b1110 2
0=
1e
1f
1_
0#
0W
1Z
0K
1N
1G
06
0A
0B
0;
1]
0Q
0E
09
b1000 3
b1000 h
b1000 1
b1000 i
b1000 o
b1000 &
b1000 ,
b1000 n
b1101 s
#21000
b1111 $
b1111 2
1=
1A
1B
1;
19
b1001 3
b1001 h
b1001 1
b1001 i
b1001 o
b1001 &
b1001 ,
b1001 n
b1110 s
#21200
0"
1!
0a
0U
0_
1#
1H
0I
0S
15
b0 $
b0 2
0=
1K
0N
0G
16
0A
0B
0;
1E
09
b1010 3
b1010 h
b1010 1
b1010 i
b1010 o
b1010 &
b1010 ,
b1010 n
b1111 s
#21400
0!
b1 $
b1 2
1=
1A
1B
1;
19
b1011 3
b1011 h
b1011 1
b1011 i
b1011 o
b1011 &
b1011 ,
b1011 n
1r
0q
1p
b10000 s
#21600
1T
0H
1I
0!
b10 $
b10 2
0=
1W
0Z
0K
1N
1G
06
0A
0B
0;
1Q
0E
09
b1100 3
b1100 h
b1100 1
b1100 i
b1100 o
b1100 &
b1100 ,
b1100 n
0r
b10001 s
#21800
b11 $
b11 2
1=
1A
1B
1;
19
b1101 3
b1101 h
b1101 1
b1101 i
b1101 o
b1101 &
b1101 ,
b1101 n
b10010 s
#22000
1U
1H
0!
0I
1S
b100 $
b100 2
0=
1K
0N
0G
16
0A
0B
0;
1E
09
b1110 3
b1110 h
b1110 1
b1110 i
b1110 o
b1110 &
b1110 ,
b1110 n
b10011 s
#22200
b101 $
b101 2
1=
1A
1B
1;
19
b1111 3
b1111 h
b1111 1
b1111 i
b1111 o
b1111 &
b1111 ,
b1111 n
b10100 s
#22400
0"
0a
0T
0H
b111 $
b111 2
1I
05
0@
0e
0f
0_
0#
0W
1Z
0K
1N
1G
06
18
0]
0Q
0E
09
b111 4
b111 l
b0 3
b0 h
b111 %
b111 *
b111 k
b111 m
b0 1
b0 i
b0 o
b0 &
b0 ,
b0 n
b10101 s
